^C:\USERS\LUCAS\DESKTOP\GRAFICOS\LUCAS_MARCUZZI-GRAFICOS2-925D23136AD2\ENGINE\TESTENGINE\ASTEROID.CPP|C:\USERS\LUCAS\DESKTOP\GRAFICOS\LUCAS_MARCUZZI-GRAFICOS2-925D23136AD2\ENGINE\TESTENGINE\GAME.CPP|C:\USERS\LUCAS\DESKTOP\GRAFICOS\LUCAS_MARCUZZI-GRAFICOS2-925D23136AD2\ENGINE\TESTENGINE\MAIN.CPP|C:\USERS\LUCAS\DESKTOP\GRAFICOS\LUCAS_MARCUZZI-GRAFICOS2-925D23136AD2\ENGINE\TESTENGINE\PLAYER.CPP
C:\USERS\LUCAS\DESKTOP\GRAFICOS\LUCAS_MARCUZZI-GRAFICOS2-925D23136AD2\ENGINE\TESTENGINE\DEBUG\VC141.PDB
C:\USERS\LUCAS\DESKTOP\GRAFICOS\LUCAS_MARCUZZI-GRAFICOS2-925D23136AD2\ENGINE\TESTENGINE\DEBUG\VC141.IDB
C:\USERS\LUCAS\DESKTOP\GRAFICOS\LUCAS_MARCUZZI-GRAFICOS2-925D23136AD2\ENGINE\TESTENGINE\DEBUG\ASTEROID.OBJ
C:\USERS\LUCAS\DESKTOP\GRAFICOS\LUCAS_MARCUZZI-GRAFICOS2-925D23136AD2\ENGINE\TESTENGINE\DEBUG\GAME.OBJ
C:\USERS\LUCAS\DESKTOP\GRAFICOS\LUCAS_MARCUZZI-GRAFICOS2-925D23136AD2\ENGINE\TESTENGINE\DEBUG\MAIN.OBJ
C:\USERS\LUCAS\DESKTOP\GRAFICOS\LUCAS_MARCUZZI-GRAFICOS2-925D23136AD2\ENGINE\TESTENGINE\DEBUG\PLAYER.OBJ
^C:\USERS\LUCAS\DESKTOP\GRAFICOS\LUCAS_MARCUZZI-GRAFICOS2-925D23136AD2\ENGINE\TESTENGINE\ASTEROID.CPP
C:\USERS\LUCAS\DESKTOP\GRAFICOS\LUCAS_MARCUZZI-GRAFICOS2-925D23136AD2\ENGINE\TESTENGINE\DEBUG\VC141.PDB
^C:\USERS\LUCAS\DESKTOP\GRAFICOS\LUCAS_MARCUZZI-GRAFICOS2-925D23136AD2\ENGINE\TESTENGINE\GAME.CPP
C:\USERS\LUCAS\DESKTOP\GRAFICOS\LUCAS_MARCUZZI-GRAFICOS2-925D23136AD2\ENGINE\TESTENGINE\DEBUG\VC141.PDB
C:\USERS\LUCAS\DESKTOP\GRAFICOS\LUCAS_MARCUZZI-GRAFICOS2-925D23136AD2\ENGINE\TESTENGINE\DEBUG\VC141.IDB
C:\USERS\LUCAS\DESKTOP\GRAFICOS\LUCAS_MARCUZZI-GRAFICOS2-925D23136AD2\ENGINE\TESTENGINE\DEBUG\GAME.OBJ
^C:\USERS\LUCAS\DESKTOP\GRAFICOS\LUCAS_MARCUZZI-GRAFICOS2-925D23136AD2\ENGINE\TESTENGINE\MAIN.CPP
C:\USERS\LUCAS\DESKTOP\GRAFICOS\LUCAS_MARCUZZI-GRAFICOS2-925D23136AD2\ENGINE\TESTENGINE\DEBUG\VC141.PDB
C:\USERS\LUCAS\DESKTOP\GRAFICOS\LUCAS_MARCUZZI-GRAFICOS2-925D23136AD2\ENGINE\TESTENGINE\DEBUG\VC141.IDB
C:\USERS\LUCAS\DESKTOP\GRAFICOS\LUCAS_MARCUZZI-GRAFICOS2-925D23136AD2\ENGINE\TESTENGINE\DEBUG\MAIN.OBJ
^C:\USERS\LUCAS\DESKTOP\GRAFICOS\LUCAS_MARCUZZI-GRAFICOS2-925D23136AD2\ENGINE\TESTENGINE\PLAYER.CPP
C:\USERS\LUCAS\DESKTOP\GRAFICOS\LUCAS_MARCUZZI-GRAFICOS2-925D23136AD2\ENGINE\TESTENGINE\DEBUG\VC141.PDB
^C:\USERS\LUCAS\DESKTOP\GRAFICOS\LUCAS_MARCUZZI-GRAFICOS2-925D23136AD2\ENGINE\TESTENGINE\GAME.CPP|C:\USERS\LUCAS\DESKTOP\GRAFICOS\LUCAS_MARCUZZI-GRAFICOS2-925D23136AD2\ENGINE\TESTENGINE\MAIN.CPP
C:\USERS\LUCAS\DESKTOP\GRAFICOS\LUCAS_MARCUZZI-GRAFICOS2-925D23136AD2\ENGINE\TESTENGINE\DEBUG\VC141.PDB
C:\USERS\LUCAS\DESKTOP\GRAFICOS\LUCAS_MARCUZZI-GRAFICOS2-925D23136AD2\ENGINE\TESTENGINE\DEBUG\VC141.IDB
C:\USERS\LUCAS\DESKTOP\GRAFICOS\LUCAS_MARCUZZI-GRAFICOS2-925D23136AD2\ENGINE\TESTENGINE\DEBUG\MAIN.OBJ
^C:\USERS\LUCAS\DESKTOP\GRAFICOS - COPIA\LUCAS_MARCUZZI-GRAFICOS2-925D23136AD2\ENGINE\TESTENGINE\ASTEROID.CPP|C:\USERS\LUCAS\DESKTOP\GRAFICOS - COPIA\LUCAS_MARCUZZI-GRAFICOS2-925D23136AD2\ENGINE\TESTENGINE\GAME.CPP|C:\USERS\LUCAS\DESKTOP\GRAFICOS - COPIA\LUCAS_MARCUZZI-GRAFICOS2-925D23136AD2\ENGINE\TESTENGINE\MAIN.CPP|C:\USERS\LUCAS\DESKTOP\GRAFICOS - COPIA\LUCAS_MARCUZZI-GRAFICOS2-925D23136AD2\ENGINE\TESTENGINE\PLAYER.CPP
C:\USERS\LUCAS\DESKTOP\GRAFICOS - COPIA\LUCAS_MARCUZZI-GRAFICOS2-925D23136AD2\ENGINE\TESTENGINE\DEBUG\VC141.PDB
C:\USERS\LUCAS\DESKTOP\GRAFICOS - COPIA\LUCAS_MARCUZZI-GRAFICOS2-925D23136AD2\ENGINE\TESTENGINE\DEBUG\VC141.IDB
C:\USERS\LUCAS\DESKTOP\GRAFICOS - COPIA\LUCAS_MARCUZZI-GRAFICOS2-925D23136AD2\ENGINE\TESTENGINE\DEBUG\ASTEROID.OBJ
C:\USERS\LUCAS\DESKTOP\GRAFICOS - COPIA\LUCAS_MARCUZZI-GRAFICOS2-925D23136AD2\ENGINE\TESTENGINE\DEBUG\GAME.OBJ
C:\USERS\LUCAS\DESKTOP\GRAFICOS - COPIA\LUCAS_MARCUZZI-GRAFICOS2-925D23136AD2\ENGINE\TESTENGINE\DEBUG\MAIN.OBJ
C:\USERS\LUCAS\DESKTOP\GRAFICOS - COPIA\LUCAS_MARCUZZI-GRAFICOS2-925D23136AD2\ENGINE\TESTENGINE\DEBUG\PLAYER.OBJ
^C:\USERS\LUCAS\DESKTOP\GRAFICOS - COPIA\LUCAS_MARCUZZI-GRAFICOS2-925D23136AD2\ENGINE\TESTENGINE\ASTEROID.CPP
C:\USERS\LUCAS\DESKTOP\GRAFICOS - COPIA\LUCAS_MARCUZZI-GRAFICOS2-925D23136AD2\ENGINE\TESTENGINE\DEBUG\VC141.PDB
^C:\USERS\LUCAS\DESKTOP\GRAFICOS - COPIA\LUCAS_MARCUZZI-GRAFICOS2-925D23136AD2\ENGINE\TESTENGINE\GAME.CPP
C:\USERS\LUCAS\DESKTOP\GRAFICOS - COPIA\LUCAS_MARCUZZI-GRAFICOS2-925D23136AD2\ENGINE\TESTENGINE\DEBUG\VC141.PDB
C:\USERS\LUCAS\DESKTOP\GRAFICOS - COPIA\LUCAS_MARCUZZI-GRAFICOS2-925D23136AD2\ENGINE\TESTENGINE\DEBUG\VC141.IDB
C:\USERS\LUCAS\DESKTOP\GRAFICOS - COPIA\LUCAS_MARCUZZI-GRAFICOS2-925D23136AD2\ENGINE\TESTENGINE\DEBUG\GAME.OBJ
^C:\USERS\LUCAS\DESKTOP\GRAFICOS - COPIA\LUCAS_MARCUZZI-GRAFICOS2-925D23136AD2\ENGINE\TESTENGINE\MAIN.CPP
C:\USERS\LUCAS\DESKTOP\GRAFICOS - COPIA\LUCAS_MARCUZZI-GRAFICOS2-925D23136AD2\ENGINE\TESTENGINE\DEBUG\VC141.PDB
^C:\USERS\LUCAS\DESKTOP\GRAFICOS - COPIA\LUCAS_MARCUZZI-GRAFICOS2-925D23136AD2\ENGINE\TESTENGINE\PLAYER.CPP
C:\USERS\LUCAS\DESKTOP\GRAFICOS - COPIA\LUCAS_MARCUZZI-GRAFICOS2-925D23136AD2\ENGINE\TESTENGINE\DEBUG\VC141.PDB
^C:\USERS\LUCAS\DESKTOP\GRAFICOS - COPIA\LUCAS_MARCUZZI-GRAFICOS2-925D23136AD2\ENGINE\TESTENGINE\GAME.CPP|C:\USERS\LUCAS\DESKTOP\GRAFICOS - COPIA\LUCAS_MARCUZZI-GRAFICOS2-925D23136AD2\ENGINE\TESTENGINE\MAIN.CPP
C:\USERS\LUCAS\DESKTOP\GRAFICOS - COPIA\LUCAS_MARCUZZI-GRAFICOS2-925D23136AD2\ENGINE\TESTENGINE\DEBUG\VC141.PDB
C:\USERS\LUCAS\DESKTOP\GRAFICOS - COPIA\LUCAS_MARCUZZI-GRAFICOS2-925D23136AD2\ENGINE\TESTENGINE\DEBUG\VC141.IDB
C:\USERS\LUCAS\DESKTOP\GRAFICOS - COPIA\LUCAS_MARCUZZI-GRAFICOS2-925D23136AD2\ENGINE\TESTENGINE\DEBUG\GAME.OBJ
C:\USERS\LUCAS\DESKTOP\GRAFICOS - COPIA\LUCAS_MARCUZZI-GRAFICOS2-925D23136AD2\ENGINE\TESTENGINE\DEBUG\MAIN.OBJ
^C:\USERS\LUCAS\DESKTOP\GRAFICOS - COPIA - COPIA\LUCAS_MARCUZZI-GRAFICOS2-925D23136AD2\ENGINE\TESTENGINE\ASTEROID.CPP|C:\USERS\LUCAS\DESKTOP\GRAFICOS - COPIA - COPIA\LUCAS_MARCUZZI-GRAFICOS2-925D23136AD2\ENGINE\TESTENGINE\GAME.CPP|C:\USERS\LUCAS\DESKTOP\GRAFICOS - COPIA - COPIA\LUCAS_MARCUZZI-GRAFICOS2-925D23136AD2\ENGINE\TESTENGINE\MAIN.CPP|C:\USERS\LUCAS\DESKTOP\GRAFICOS - COPIA - COPIA\LUCAS_MARCUZZI-GRAFICOS2-925D23136AD2\ENGINE\TESTENGINE\PLAYER.CPP
C:\USERS\LUCAS\DESKTOP\GRAFICOS - COPIA - COPIA\LUCAS_MARCUZZI-GRAFICOS2-925D23136AD2\ENGINE\TESTENGINE\DEBUG\VC141.PDB
C:\USERS\LUCAS\DESKTOP\GRAFICOS - COPIA - COPIA\LUCAS_MARCUZZI-GRAFICOS2-925D23136AD2\ENGINE\TESTENGINE\DEBUG\VC141.IDB
C:\USERS\LUCAS\DESKTOP\GRAFICOS - COPIA - COPIA\LUCAS_MARCUZZI-GRAFICOS2-925D23136AD2\ENGINE\TESTENGINE\DEBUG\ASTEROID.OBJ
C:\USERS\LUCAS\DESKTOP\GRAFICOS - COPIA - COPIA\LUCAS_MARCUZZI-GRAFICOS2-925D23136AD2\ENGINE\TESTENGINE\DEBUG\GAME.OBJ
C:\USERS\LUCAS\DESKTOP\GRAFICOS - COPIA - COPIA\LUCAS_MARCUZZI-GRAFICOS2-925D23136AD2\ENGINE\TESTENGINE\DEBUG\MAIN.OBJ
C:\USERS\LUCAS\DESKTOP\GRAFICOS - COPIA - COPIA\LUCAS_MARCUZZI-GRAFICOS2-925D23136AD2\ENGINE\TESTENGINE\DEBUG\PLAYER.OBJ
^C:\USERS\LUCAS\DESKTOP\GRAFICOS - COPIA - COPIA\LUCAS_MARCUZZI-GRAFICOS2-925D23136AD2\ENGINE\TESTENGINE\ASTEROID.CPP
C:\USERS\LUCAS\DESKTOP\GRAFICOS - COPIA - COPIA\LUCAS_MARCUZZI-GRAFICOS2-925D23136AD2\ENGINE\TESTENGINE\DEBUG\VC141.PDB
^C:\USERS\LUCAS\DESKTOP\GRAFICOS - COPIA - COPIA\LUCAS_MARCUZZI-GRAFICOS2-925D23136AD2\ENGINE\TESTENGINE\GAME.CPP
C:\USERS\LUCAS\DESKTOP\GRAFICOS - COPIA - COPIA\LUCAS_MARCUZZI-GRAFICOS2-925D23136AD2\ENGINE\TESTENGINE\DEBUG\VC141.PDB
C:\USERS\LUCAS\DESKTOP\GRAFICOS - COPIA - COPIA\LUCAS_MARCUZZI-GRAFICOS2-925D23136AD2\ENGINE\TESTENGINE\DEBUG\VC141.IDB
C:\USERS\LUCAS\DESKTOP\GRAFICOS - COPIA - COPIA\LUCAS_MARCUZZI-GRAFICOS2-925D23136AD2\ENGINE\TESTENGINE\DEBUG\GAME.OBJ
^C:\USERS\LUCAS\DESKTOP\GRAFICOS - COPIA - COPIA\LUCAS_MARCUZZI-GRAFICOS2-925D23136AD2\ENGINE\TESTENGINE\MAIN.CPP
C:\USERS\LUCAS\DESKTOP\GRAFICOS - COPIA - COPIA\LUCAS_MARCUZZI-GRAFICOS2-925D23136AD2\ENGINE\TESTENGINE\DEBUG\VC141.PDB
^C:\USERS\LUCAS\DESKTOP\GRAFICOS - COPIA - COPIA\LUCAS_MARCUZZI-GRAFICOS2-925D23136AD2\ENGINE\TESTENGINE\PLAYER.CPP
C:\USERS\LUCAS\DESKTOP\GRAFICOS - COPIA - COPIA\LUCAS_MARCUZZI-GRAFICOS2-925D23136AD2\ENGINE\TESTENGINE\DEBUG\VC141.PDB
^C:\USERS\LUCAS\DESKTOP\GRAFICOS - COPIA - COPIA\LUCAS_MARCUZZI-GRAFICOS2-925D23136AD2\ENGINE\TESTENGINE\GAME.CPP|C:\USERS\LUCAS\DESKTOP\GRAFICOS - COPIA - COPIA\LUCAS_MARCUZZI-GRAFICOS2-925D23136AD2\ENGINE\TESTENGINE\MAIN.CPP
C:\USERS\LUCAS\DESKTOP\GRAFICOS - COPIA - COPIA\LUCAS_MARCUZZI-GRAFICOS2-925D23136AD2\ENGINE\TESTENGINE\DEBUG\VC141.PDB
C:\USERS\LUCAS\DESKTOP\GRAFICOS - COPIA - COPIA\LUCAS_MARCUZZI-GRAFICOS2-925D23136AD2\ENGINE\TESTENGINE\DEBUG\VC141.IDB
C:\USERS\LUCAS\DESKTOP\GRAFICOS - COPIA - COPIA\LUCAS_MARCUZZI-GRAFICOS2-925D23136AD2\ENGINE\TESTENGINE\DEBUG\GAME.OBJ
C:\USERS\LUCAS\DESKTOP\GRAFICOS - COPIA - COPIA\LUCAS_MARCUZZI-GRAFICOS2-925D23136AD2\ENGINE\TESTENGINE\DEBUG\MAIN.OBJ
