# Exported from Wings 3D 2.1.5
mtllib walls.mtl
o Cube10_copy11
#8 vertices, 12 faces
v -7.72786977 -0.95393841 -13.38897392
v -7.72786977 -0.95393841 9.9026084e-2
v -7.72786977 10.34652351 -13.38897392
v -7.72786977 10.34652351 9.9026084e-2
v -6.52386977 -0.95393841 -13.38897392
v -6.52386977 -0.95393841 9.9026084e-2
v -6.52386977 10.34652351 -13.38897392
v -6.52386977 10.34652351 9.9026084e-2
vn -0.57735027 -0.57735027 -0.57735027
vn -0.57735027 -0.57735027 0.57735027
vn -0.57735027 0.57735027 -0.57735027
vn -0.57735027 0.57735027 0.57735027
vn 0.57735027 -0.57735027 -0.57735027
vn 0.57735027 -0.57735027 0.57735027
vn 0.57735027 0.57735027 -0.57735027
vn 0.57735027 0.57735027 0.57735027
g Cube10_copy11_default
usemtl default
s 1
f 1//1 5//5 2//2
f 2//2 3//3 1//1
f 2//2 5//5 6//6
f 2//2 8//8 4//4
f 3//3 5//5 1//1
f 3//3 8//8 7//7
f 4//4 3//3 2//2
f 4//4 8//8 3//3
f 5//5 8//8 6//6
f 6//6 8//8 2//2
f 7//7 5//5 3//3
f 7//7 8//8 5//5
o Cube10
#8 vertices, 12 faces
v 6.65461585 -0.95393841 -13.38897392
v 6.65461585 -0.95393841 9.9026084e-2
v 6.65461585 10.34652351 -13.38897392
v 6.65461585 10.34652351 9.9026084e-2
v 7.85861585 -0.95393841 -13.38897392
v 7.85861585 -0.95393841 9.9026084e-2
v 7.85861585 10.34652351 -13.38897392
v 7.85861585 10.34652351 9.9026084e-2
vn -0.57735027 -0.57735027 -0.57735027
vn -0.57735027 -0.57735027 0.57735027
vn -0.57735027 0.57735027 -0.57735027
vn -0.57735027 0.57735027 0.57735027
vn 0.57735027 -0.57735027 -0.57735027
vn 0.57735027 -0.57735027 0.57735027
vn 0.57735027 0.57735027 -0.57735027
vn 0.57735027 0.57735027 0.57735027
g Cube10_default
usemtl default
s 1
f 9//9 13//13 10//10
f 10//10 11//11 9//9
f 10//10 13//13 14//14
f 10//10 16//16 12//12
f 11//11 13//13 9//9
f 11//11 16//16 15//15
f 12//12 11//11 10//10
f 12//12 16//16 11//11
f 13//13 16//16 14//14
f 14//14 16//16 10//10
f 15//15 13//13 11//11
f 15//15 16//16 13//13
o Cube9
#8 vertices, 12 faces
v -21.36200000 -1.01701776 -0.47722178
v -21.36200000 -1.01701776 0.64529822
v -21.36200000 10.31098224 -0.47722178
v -21.36200000 10.31098224 0.64529822
v 21.36200000 -1.01701776 -0.47722178
v 21.36200000 -1.01701776 0.64529822
v 21.36200000 10.31098224 -0.47722178
v 21.36200000 10.31098224 0.64529822
vn -0.57735027 -0.57735027 -0.57735027
vn -0.57735027 -0.57735027 0.57735027
vn -0.57735027 0.57735027 -0.57735027
vn -0.57735027 0.57735027 0.57735027
vn 0.57735027 -0.57735027 -0.57735027
vn 0.57735027 -0.57735027 0.57735027
vn 0.57735027 0.57735027 -0.57735027
vn 0.57735027 0.57735027 0.57735027
g Cube9_default
usemtl default
s 1
f 17//17 21//21 18//18
f 18//18 19//19 17//17
f 18//18 21//21 22//22
f 18//18 24//24 20//20
f 19//19 21//21 17//17
f 19//19 24//24 23//23
f 20//20 19//19 18//18
f 20//20 24//24 19//19
f 21//21 24//24 22//22
f 22//22 24//24 18//18
f 23//23 21//21 19//19
f 23//23 24//24 21//21
