^C:\Users\Lucas\Desktop\Graficos\Lucas_Marcuzzi-graficos2-925d23136ad2\Engine\EngineDLL\EngineDLL.vcxproj
C:\Users\Lucas\Desktop\Graficos\Lucas_Marcuzzi-graficos2-925d23136ad2\Engine\Debug\EngineDLL.lib
C:\Users\Lucas\Desktop\Graficos\Lucas_Marcuzzi-graficos2-925d23136ad2\Engine\Debug\EngineDLL.exp
^C:\Users\Lucas\Desktop\Graficos\Lucas_Marcuzzi-graficos2-925d23136ad2\Engine\EngineDLL\EngineDLL.vcxproj
C:\Users\Lucas\Desktop\Graficos\Lucas_Marcuzzi-graficos2-925d23136ad2\Engine\Debug\EngineDLL.lib
C:\Users\Lucas\Desktop\Graficos\Lucas_Marcuzzi-graficos2-925d23136ad2\Engine\Debug\EngineDLL.exp
^C:\Users\Lucas\Desktop\Graficos\Lucas_Marcuzzi-graficos2-925d23136ad2\Engine\EngineDLL\EngineDLL.vcxproj
C:\Users\Lucas\Desktop\Graficos\Lucas_Marcuzzi-graficos2-925d23136ad2\Engine\Debug\EngineDLL.lib
C:\Users\Lucas\Desktop\Graficos\Lucas_Marcuzzi-graficos2-925d23136ad2\Engine\Debug\EngineDLL.exp
^C:\Users\Lucas\Desktop\Graficos\Lucas_Marcuzzi-graficos2-925d23136ad2\Engine\EngineDLL\EngineDLL.vcxproj
C:\Users\Lucas\Desktop\Graficos\Lucas_Marcuzzi-graficos2-925d23136ad2\Engine\Debug\EngineDLL.lib
C:\Users\Lucas\Desktop\Graficos\Lucas_Marcuzzi-graficos2-925d23136ad2\Engine\Debug\EngineDLL.exp
^C:\Users\Lucas\Desktop\Graficos\Lucas_Marcuzzi-graficos2-925d23136ad2\Engine\EngineDLL\EngineDLL.vcxproj
C:\Users\Lucas\Desktop\Graficos\Lucas_Marcuzzi-graficos2-925d23136ad2\Engine\Debug\EngineDLL.lib
C:\Users\Lucas\Desktop\Graficos\Lucas_Marcuzzi-graficos2-925d23136ad2\Engine\Debug\EngineDLL.exp
^C:\Users\Lucas\Desktop\Graficos\Lucas_Marcuzzi-graficos2-925d23136ad2\Engine\EngineDLL\EngineDLL.vcxproj
C:\Users\Lucas\Desktop\Graficos\Lucas_Marcuzzi-graficos2-925d23136ad2\Engine\Debug\EngineDLL.lib
C:\Users\Lucas\Desktop\Graficos\Lucas_Marcuzzi-graficos2-925d23136ad2\Engine\Debug\EngineDLL.exp
^C:\Users\Lucas\Desktop\Graficos\Lucas_Marcuzzi-graficos2-925d23136ad2\Engine\EngineDLL\EngineDLL.vcxproj
C:\Users\Lucas\Desktop\Graficos\Lucas_Marcuzzi-graficos2-925d23136ad2\Engine\Debug\EngineDLL.lib
C:\Users\Lucas\Desktop\Graficos\Lucas_Marcuzzi-graficos2-925d23136ad2\Engine\Debug\EngineDLL.exp
^C:\Users\Lucas\Desktop\Graficos\Lucas_Marcuzzi-graficos2-925d23136ad2\Engine\EngineDLL\EngineDLL.vcxproj
C:\Users\Lucas\Desktop\Graficos\Lucas_Marcuzzi-graficos2-925d23136ad2\Engine\Debug\EngineDLL.lib
C:\Users\Lucas\Desktop\Graficos\Lucas_Marcuzzi-graficos2-925d23136ad2\Engine\Debug\EngineDLL.exp
^C:\Users\Lucas\Desktop\Graficos\Lucas_Marcuzzi-graficos2-925d23136ad2\Engine\EngineDLL\EngineDLL.vcxproj
C:\Users\Lucas\Desktop\Graficos\Lucas_Marcuzzi-graficos2-925d23136ad2\Engine\Debug\EngineDLL.lib
C:\Users\Lucas\Desktop\Graficos\Lucas_Marcuzzi-graficos2-925d23136ad2\Engine\Debug\EngineDLL.exp
^C:\Users\Lucas\Desktop\Graficos\Lucas_Marcuzzi-graficos2-925d23136ad2\Engine\EngineDLL\EngineDLL.vcxproj
C:\Users\Lucas\Desktop\Graficos\Lucas_Marcuzzi-graficos2-925d23136ad2\Engine\Debug\EngineDLL.lib
C:\Users\Lucas\Desktop\Graficos\Lucas_Marcuzzi-graficos2-925d23136ad2\Engine\Debug\EngineDLL.exp
^C:\Users\Lucas\Desktop\Graficos\Lucas_Marcuzzi-graficos2-925d23136ad2\Engine\EngineDLL\EngineDLL.vcxproj
C:\Users\Lucas\Desktop\Graficos\Lucas_Marcuzzi-graficos2-925d23136ad2\Engine\Debug\EngineDLL.lib
C:\Users\Lucas\Desktop\Graficos\Lucas_Marcuzzi-graficos2-925d23136ad2\Engine\Debug\EngineDLL.exp
^C:\Users\Lucas\Desktop\Graficos\Lucas_Marcuzzi-graficos2-925d23136ad2\Engine\EngineDLL\EngineDLL.vcxproj
C:\Users\Lucas\Desktop\Graficos\Lucas_Marcuzzi-graficos2-925d23136ad2\Engine\Debug\EngineDLL.lib
C:\Users\Lucas\Desktop\Graficos\Lucas_Marcuzzi-graficos2-925d23136ad2\Engine\Debug\EngineDLL.exp
^C:\Users\Lucas\Desktop\Graficos\Lucas_Marcuzzi-graficos2-925d23136ad2\Engine\EngineDLL\EngineDLL.vcxproj
C:\Users\Lucas\Desktop\Graficos\Lucas_Marcuzzi-graficos2-925d23136ad2\Engine\Debug\EngineDLL.lib
C:\Users\Lucas\Desktop\Graficos\Lucas_Marcuzzi-graficos2-925d23136ad2\Engine\Debug\EngineDLL.exp
^C:\Users\Lucas\Desktop\Graficos\Lucas_Marcuzzi-graficos2-925d23136ad2\Engine\EngineDLL\EngineDLL.vcxproj
C:\Users\Lucas\Desktop\Graficos\Lucas_Marcuzzi-graficos2-925d23136ad2\Engine\Debug\EngineDLL.lib
C:\Users\Lucas\Desktop\Graficos\Lucas_Marcuzzi-graficos2-925d23136ad2\Engine\Debug\EngineDLL.exp
^C:\Users\Lucas\Desktop\Graficos\Lucas_Marcuzzi-graficos2-925d23136ad2\Engine\EngineDLL\EngineDLL.vcxproj
C:\Users\Lucas\Desktop\Graficos\Lucas_Marcuzzi-graficos2-925d23136ad2\Engine\Debug\EngineDLL.lib
C:\Users\Lucas\Desktop\Graficos\Lucas_Marcuzzi-graficos2-925d23136ad2\Engine\Debug\EngineDLL.exp
^C:\Users\Lucas\Desktop\Graficos\Lucas_Marcuzzi-graficos2-925d23136ad2\Engine\EngineDLL\EngineDLL.vcxproj
C:\Users\Lucas\Desktop\Graficos\Lucas_Marcuzzi-graficos2-925d23136ad2\Engine\Debug\EngineDLL.lib
C:\Users\Lucas\Desktop\Graficos\Lucas_Marcuzzi-graficos2-925d23136ad2\Engine\Debug\EngineDLL.exp
^C:\Users\Lucas\Desktop\Graficos\Lucas_Marcuzzi-graficos2-925d23136ad2\Engine\EngineDLL\EngineDLL.vcxproj
C:\Users\Lucas\Desktop\Graficos\Lucas_Marcuzzi-graficos2-925d23136ad2\Engine\Debug\EngineDLL.lib
C:\Users\Lucas\Desktop\Graficos\Lucas_Marcuzzi-graficos2-925d23136ad2\Engine\Debug\EngineDLL.exp
^C:\Users\Lucas\Desktop\Graficos\Lucas_Marcuzzi-graficos2-925d23136ad2\Engine\EngineDLL\EngineDLL.vcxproj
C:\Users\Lucas\Desktop\Graficos\Lucas_Marcuzzi-graficos2-925d23136ad2\Engine\Debug\EngineDLL.lib
C:\Users\Lucas\Desktop\Graficos\Lucas_Marcuzzi-graficos2-925d23136ad2\Engine\Debug\EngineDLL.exp
^C:\Users\Lucas\Desktop\Graficos\Lucas_Marcuzzi-graficos2-925d23136ad2\Engine\EngineDLL\EngineDLL.vcxproj
C:\Users\Lucas\Desktop\Graficos\Lucas_Marcuzzi-graficos2-925d23136ad2\Engine\Debug\EngineDLL.lib
C:\Users\Lucas\Desktop\Graficos\Lucas_Marcuzzi-graficos2-925d23136ad2\Engine\Debug\EngineDLL.exp
^C:\Users\Lucas\Desktop\Graficos\Lucas_Marcuzzi-graficos2-925d23136ad2\Engine\EngineDLL\EngineDLL.vcxproj
C:\Users\Lucas\Desktop\Graficos\Lucas_Marcuzzi-graficos2-925d23136ad2\Engine\Debug\EngineDLL.lib
C:\Users\Lucas\Desktop\Graficos\Lucas_Marcuzzi-graficos2-925d23136ad2\Engine\Debug\EngineDLL.exp
^C:\Users\Lucas\Desktop\Graficos\Lucas_Marcuzzi-graficos2-925d23136ad2\Engine\EngineDLL\EngineDLL.vcxproj
C:\Users\Lucas\Desktop\Graficos\Lucas_Marcuzzi-graficos2-925d23136ad2\Engine\Debug\EngineDLL.lib
C:\Users\Lucas\Desktop\Graficos\Lucas_Marcuzzi-graficos2-925d23136ad2\Engine\Debug\EngineDLL.exp
^C:\Users\Lucas\Desktop\Graficos\Lucas_Marcuzzi-graficos2-925d23136ad2\Engine\EngineDLL\EngineDLL.vcxproj
C:\Users\Lucas\Desktop\Graficos\Lucas_Marcuzzi-graficos2-925d23136ad2\Engine\Debug\EngineDLL.lib
C:\Users\Lucas\Desktop\Graficos\Lucas_Marcuzzi-graficos2-925d23136ad2\Engine\Debug\EngineDLL.exp
^C:\Users\Lucas\Desktop\Graficos\Lucas_Marcuzzi-graficos2-925d23136ad2\Engine\EngineDLL\EngineDLL.vcxproj
C:\Users\Lucas\Desktop\Graficos\Lucas_Marcuzzi-graficos2-925d23136ad2\Engine\Debug\EngineDLL.lib
C:\Users\Lucas\Desktop\Graficos\Lucas_Marcuzzi-graficos2-925d23136ad2\Engine\Debug\EngineDLL.exp
^C:\Users\Lucas\Desktop\Graficos\Lucas_Marcuzzi-graficos2-925d23136ad2\Engine\EngineDLL\EngineDLL.vcxproj
C:\Users\Lucas\Desktop\Graficos\Lucas_Marcuzzi-graficos2-925d23136ad2\Engine\Debug\EngineDLL.lib
C:\Users\Lucas\Desktop\Graficos\Lucas_Marcuzzi-graficos2-925d23136ad2\Engine\Debug\EngineDLL.exp
^C:\Users\Lucas\Desktop\Graficos\Lucas_Marcuzzi-graficos2-925d23136ad2\Engine\EngineDLL\EngineDLL.vcxproj
C:\Users\Lucas\Desktop\Graficos\Lucas_Marcuzzi-graficos2-925d23136ad2\Engine\Debug\EngineDLL.lib
C:\Users\Lucas\Desktop\Graficos\Lucas_Marcuzzi-graficos2-925d23136ad2\Engine\Debug\EngineDLL.exp
^C:\Users\Lucas\Desktop\Graficos\Lucas_Marcuzzi-graficos2-925d23136ad2\Engine\EngineDLL\EngineDLL.vcxproj
C:\Users\Lucas\Desktop\Graficos\Lucas_Marcuzzi-graficos2-925d23136ad2\Engine\Debug\EngineDLL.lib
C:\Users\Lucas\Desktop\Graficos\Lucas_Marcuzzi-graficos2-925d23136ad2\Engine\Debug\EngineDLL.exp
^C:\Users\Lucas\Desktop\Graficos\Lucas_Marcuzzi-graficos2-925d23136ad2\Engine\EngineDLL\EngineDLL.vcxproj
C:\Users\Lucas\Desktop\Graficos\Lucas_Marcuzzi-graficos2-925d23136ad2\Engine\Debug\EngineDLL.lib
C:\Users\Lucas\Desktop\Graficos\Lucas_Marcuzzi-graficos2-925d23136ad2\Engine\Debug\EngineDLL.exp
^C:\Users\Lucas\Desktop\Graficos\Lucas_Marcuzzi-graficos2-925d23136ad2\Engine\EngineDLL\EngineDLL.vcxproj
C:\Users\Lucas\Desktop\Graficos\Lucas_Marcuzzi-graficos2-925d23136ad2\Engine\Debug\EngineDLL.lib
C:\Users\Lucas\Desktop\Graficos\Lucas_Marcuzzi-graficos2-925d23136ad2\Engine\Debug\EngineDLL.exp
^C:\Users\Lucas\Desktop\Graficos\Lucas_Marcuzzi-graficos2-925d23136ad2\Engine\EngineDLL\EngineDLL.vcxproj
C:\Users\Lucas\Desktop\Graficos\Lucas_Marcuzzi-graficos2-925d23136ad2\Engine\Debug\EngineDLL.lib
C:\Users\Lucas\Desktop\Graficos\Lucas_Marcuzzi-graficos2-925d23136ad2\Engine\Debug\EngineDLL.exp
^C:\Users\Lucas\Desktop\Graficos\Lucas_Marcuzzi-graficos2-925d23136ad2\Engine\EngineDLL\EngineDLL.vcxproj
C:\Users\Lucas\Desktop\Graficos\Lucas_Marcuzzi-graficos2-925d23136ad2\Engine\Debug\EngineDLL.lib
C:\Users\Lucas\Desktop\Graficos\Lucas_Marcuzzi-graficos2-925d23136ad2\Engine\Debug\EngineDLL.exp
^C:\Users\Lucas\Desktop\Graficos\Lucas_Marcuzzi-graficos2-925d23136ad2\Engine\EngineDLL\EngineDLL.vcxproj
C:\Users\Lucas\Desktop\Graficos\Lucas_Marcuzzi-graficos2-925d23136ad2\Engine\Debug\EngineDLL.lib
C:\Users\Lucas\Desktop\Graficos\Lucas_Marcuzzi-graficos2-925d23136ad2\Engine\Debug\EngineDLL.exp
^C:\Users\Lucas\Desktop\Graficos\Lucas_Marcuzzi-graficos2-925d23136ad2\Engine\EngineDLL\EngineDLL.vcxproj
C:\Users\Lucas\Desktop\Graficos\Lucas_Marcuzzi-graficos2-925d23136ad2\Engine\Debug\EngineDLL.lib
C:\Users\Lucas\Desktop\Graficos\Lucas_Marcuzzi-graficos2-925d23136ad2\Engine\Debug\EngineDLL.exp
^C:\Users\Lucas\Desktop\Graficos\Lucas_Marcuzzi-graficos2-925d23136ad2\Engine\EngineDLL\EngineDLL.vcxproj
C:\Users\Lucas\Desktop\Graficos\Lucas_Marcuzzi-graficos2-925d23136ad2\Engine\Debug\EngineDLL.lib
C:\Users\Lucas\Desktop\Graficos\Lucas_Marcuzzi-graficos2-925d23136ad2\Engine\Debug\EngineDLL.exp
^C:\Users\Lucas\Desktop\Graficos\Lucas_Marcuzzi-graficos2-925d23136ad2\Engine\EngineDLL\EngineDLL.vcxproj
C:\Users\Lucas\Desktop\Graficos\Lucas_Marcuzzi-graficos2-925d23136ad2\Engine\Debug\EngineDLL.lib
C:\Users\Lucas\Desktop\Graficos\Lucas_Marcuzzi-graficos2-925d23136ad2\Engine\Debug\EngineDLL.exp
^C:\Users\Lucas\Desktop\Graficos\Lucas_Marcuzzi-graficos2-925d23136ad2\Engine\EngineDLL\EngineDLL.vcxproj
C:\Users\Lucas\Desktop\Graficos\Lucas_Marcuzzi-graficos2-925d23136ad2\Engine\Debug\EngineDLL.lib
C:\Users\Lucas\Desktop\Graficos\Lucas_Marcuzzi-graficos2-925d23136ad2\Engine\Debug\EngineDLL.exp
^C:\Users\Lucas\Desktop\Graficos\Lucas_Marcuzzi-graficos2-925d23136ad2\Engine\EngineDLL\EngineDLL.vcxproj
C:\Users\Lucas\Desktop\Graficos\Lucas_Marcuzzi-graficos2-925d23136ad2\Engine\Debug\EngineDLL.lib
C:\Users\Lucas\Desktop\Graficos\Lucas_Marcuzzi-graficos2-925d23136ad2\Engine\Debug\EngineDLL.exp
^C:\Users\Lucas\Desktop\Graficos\Lucas_Marcuzzi-graficos2-925d23136ad2\Engine\EngineDLL\EngineDLL.vcxproj
C:\Users\Lucas\Desktop\Graficos\Lucas_Marcuzzi-graficos2-925d23136ad2\Engine\Debug\EngineDLL.lib
C:\Users\Lucas\Desktop\Graficos\Lucas_Marcuzzi-graficos2-925d23136ad2\Engine\Debug\EngineDLL.exp
^C:\Users\Lucas\Desktop\Graficos\Lucas_Marcuzzi-graficos2-925d23136ad2\Engine\EngineDLL\EngineDLL.vcxproj
C:\Users\Lucas\Desktop\Graficos\Lucas_Marcuzzi-graficos2-925d23136ad2\Engine\Debug\EngineDLL.lib
C:\Users\Lucas\Desktop\Graficos\Lucas_Marcuzzi-graficos2-925d23136ad2\Engine\Debug\EngineDLL.exp
^C:\Users\Lucas\Desktop\Graficos\Lucas_Marcuzzi-graficos2-925d23136ad2\Engine\EngineDLL\EngineDLL.vcxproj
C:\Users\Lucas\Desktop\Graficos\Lucas_Marcuzzi-graficos2-925d23136ad2\Engine\Debug\EngineDLL.lib
C:\Users\Lucas\Desktop\Graficos\Lucas_Marcuzzi-graficos2-925d23136ad2\Engine\Debug\EngineDLL.exp
^C:\Users\Lucas\Desktop\Graficos\Lucas_Marcuzzi-graficos2-925d23136ad2\Engine\EngineDLL\EngineDLL.vcxproj
C:\Users\Lucas\Desktop\Graficos\Lucas_Marcuzzi-graficos2-925d23136ad2\Engine\Debug\EngineDLL.lib
C:\Users\Lucas\Desktop\Graficos\Lucas_Marcuzzi-graficos2-925d23136ad2\Engine\Debug\EngineDLL.exp
^C:\Users\Lucas\Desktop\Graficos\Lucas_Marcuzzi-graficos2-925d23136ad2\Engine\EngineDLL\EngineDLL.vcxproj
C:\Users\Lucas\Desktop\Graficos\Lucas_Marcuzzi-graficos2-925d23136ad2\Engine\Debug\EngineDLL.lib
C:\Users\Lucas\Desktop\Graficos\Lucas_Marcuzzi-graficos2-925d23136ad2\Engine\Debug\EngineDLL.exp
^C:\Users\Lucas\Desktop\Graficos\Lucas_Marcuzzi-graficos2-925d23136ad2\Engine\EngineDLL\EngineDLL.vcxproj
C:\Users\Lucas\Desktop\Graficos\Lucas_Marcuzzi-graficos2-925d23136ad2\Engine\Debug\EngineDLL.lib
C:\Users\Lucas\Desktop\Graficos\Lucas_Marcuzzi-graficos2-925d23136ad2\Engine\Debug\EngineDLL.exp
^C:\Users\Lucas\Desktop\Graficos\Lucas_Marcuzzi-graficos2-925d23136ad2\Engine\EngineDLL\EngineDLL.vcxproj
C:\Users\Lucas\Desktop\Graficos\Lucas_Marcuzzi-graficos2-925d23136ad2\Engine\Debug\EngineDLL.lib
C:\Users\Lucas\Desktop\Graficos\Lucas_Marcuzzi-graficos2-925d23136ad2\Engine\Debug\EngineDLL.exp
^C:\Users\Lucas\Desktop\Graficos\Lucas_Marcuzzi-graficos2-925d23136ad2\Engine\EngineDLL\EngineDLL.vcxproj
C:\Users\Lucas\Desktop\Graficos\Lucas_Marcuzzi-graficos2-925d23136ad2\Engine\Debug\EngineDLL.lib
C:\Users\Lucas\Desktop\Graficos\Lucas_Marcuzzi-graficos2-925d23136ad2\Engine\Debug\EngineDLL.exp
^C:\Users\Lucas\Desktop\Graficos\Lucas_Marcuzzi-graficos2-925d23136ad2\Engine\EngineDLL\EngineDLL.vcxproj
C:\Users\Lucas\Desktop\Graficos\Lucas_Marcuzzi-graficos2-925d23136ad2\Engine\Debug\EngineDLL.lib
C:\Users\Lucas\Desktop\Graficos\Lucas_Marcuzzi-graficos2-925d23136ad2\Engine\Debug\EngineDLL.exp
^C:\Users\Lucas\Desktop\Graficos\Lucas_Marcuzzi-graficos2-925d23136ad2\Engine\EngineDLL\EngineDLL.vcxproj
C:\Users\Lucas\Desktop\Graficos\Lucas_Marcuzzi-graficos2-925d23136ad2\Engine\Debug\EngineDLL.lib
C:\Users\Lucas\Desktop\Graficos\Lucas_Marcuzzi-graficos2-925d23136ad2\Engine\Debug\EngineDLL.exp
^C:\Users\Lucas\Desktop\Graficos\Lucas_Marcuzzi-graficos2-925d23136ad2\Engine\EngineDLL\EngineDLL.vcxproj
C:\Users\Lucas\Desktop\Graficos\Lucas_Marcuzzi-graficos2-925d23136ad2\Engine\Debug\EngineDLL.lib
C:\Users\Lucas\Desktop\Graficos\Lucas_Marcuzzi-graficos2-925d23136ad2\Engine\Debug\EngineDLL.exp
^C:\Users\Lucas\Desktop\Graficos\Lucas_Marcuzzi-graficos2-925d23136ad2\Engine\EngineDLL\EngineDLL.vcxproj
C:\Users\Lucas\Desktop\Graficos\Lucas_Marcuzzi-graficos2-925d23136ad2\Engine\Debug\EngineDLL.lib
C:\Users\Lucas\Desktop\Graficos\Lucas_Marcuzzi-graficos2-925d23136ad2\Engine\Debug\EngineDLL.exp
^C:\Users\Lucas\Desktop\Graficos\Lucas_Marcuzzi-graficos2-925d23136ad2\Engine\EngineDLL\EngineDLL.vcxproj
C:\Users\Lucas\Desktop\Graficos\Lucas_Marcuzzi-graficos2-925d23136ad2\Engine\Debug\EngineDLL.lib
C:\Users\Lucas\Desktop\Graficos\Lucas_Marcuzzi-graficos2-925d23136ad2\Engine\Debug\EngineDLL.exp
^C:\Users\Lucas\Desktop\Graficos\Lucas_Marcuzzi-graficos2-925d23136ad2\Engine\EngineDLL\EngineDLL.vcxproj
C:\Users\Lucas\Desktop\Graficos\Lucas_Marcuzzi-graficos2-925d23136ad2\Engine\Debug\EngineDLL.lib
C:\Users\Lucas\Desktop\Graficos\Lucas_Marcuzzi-graficos2-925d23136ad2\Engine\Debug\EngineDLL.exp
^C:\Users\Lucas\Desktop\Graficos\Lucas_Marcuzzi-graficos2-925d23136ad2\Engine\EngineDLL\EngineDLL.vcxproj
C:\Users\Lucas\Desktop\Graficos\Lucas_Marcuzzi-graficos2-925d23136ad2\Engine\Debug\EngineDLL.lib
C:\Users\Lucas\Desktop\Graficos\Lucas_Marcuzzi-graficos2-925d23136ad2\Engine\Debug\EngineDLL.exp
^C:\Users\Lucas\Desktop\Graficos\Lucas_Marcuzzi-graficos2-925d23136ad2\Engine\EngineDLL\EngineDLL.vcxproj
C:\Users\Lucas\Desktop\Graficos\Lucas_Marcuzzi-graficos2-925d23136ad2\Engine\Debug\EngineDLL.lib
C:\Users\Lucas\Desktop\Graficos\Lucas_Marcuzzi-graficos2-925d23136ad2\Engine\Debug\EngineDLL.exp
^C:\Users\Lucas\Desktop\Graficos\Lucas_Marcuzzi-graficos2-925d23136ad2\Engine\EngineDLL\EngineDLL.vcxproj
C:\Users\Lucas\Desktop\Graficos\Lucas_Marcuzzi-graficos2-925d23136ad2\Engine\Debug\EngineDLL.lib
C:\Users\Lucas\Desktop\Graficos\Lucas_Marcuzzi-graficos2-925d23136ad2\Engine\Debug\EngineDLL.exp
^C:\Users\Lucas\Desktop\Graficos - copia\Lucas_Marcuzzi-graficos2-925d23136ad2\Engine\EngineDLL\EngineDLL.vcxproj
C:\Users\Lucas\Desktop\Graficos - copia\Lucas_Marcuzzi-graficos2-925d23136ad2\Engine\Debug\EngineDLL.lib
C:\Users\Lucas\Desktop\Graficos - copia\Lucas_Marcuzzi-graficos2-925d23136ad2\Engine\Debug\EngineDLL.exp
^C:\Users\Lucas\Desktop\Graficos - copia\Lucas_Marcuzzi-graficos2-925d23136ad2\Engine\EngineDLL\EngineDLL.vcxproj
C:\Users\Lucas\Desktop\Graficos - copia\Lucas_Marcuzzi-graficos2-925d23136ad2\Engine\Debug\EngineDLL.lib
C:\Users\Lucas\Desktop\Graficos - copia\Lucas_Marcuzzi-graficos2-925d23136ad2\Engine\Debug\EngineDLL.exp
^C:\Users\Lucas\Desktop\Graficos - copia\Lucas_Marcuzzi-graficos2-925d23136ad2\Engine\EngineDLL\EngineDLL.vcxproj
C:\Users\Lucas\Desktop\Graficos - copia\Lucas_Marcuzzi-graficos2-925d23136ad2\Engine\Debug\EngineDLL.lib
C:\Users\Lucas\Desktop\Graficos - copia\Lucas_Marcuzzi-graficos2-925d23136ad2\Engine\Debug\EngineDLL.exp
^C:\Users\Lucas\Desktop\Graficos - copia\Lucas_Marcuzzi-graficos2-925d23136ad2\Engine\EngineDLL\EngineDLL.vcxproj
C:\Users\Lucas\Desktop\Graficos - copia\Lucas_Marcuzzi-graficos2-925d23136ad2\Engine\Debug\EngineDLL.lib
C:\Users\Lucas\Desktop\Graficos - copia\Lucas_Marcuzzi-graficos2-925d23136ad2\Engine\Debug\EngineDLL.exp
^C:\Users\Lucas\Desktop\Graficos - copia\Lucas_Marcuzzi-graficos2-925d23136ad2\Engine\EngineDLL\EngineDLL.vcxproj
C:\Users\Lucas\Desktop\Graficos - copia\Lucas_Marcuzzi-graficos2-925d23136ad2\Engine\Debug\EngineDLL.lib
C:\Users\Lucas\Desktop\Graficos - copia\Lucas_Marcuzzi-graficos2-925d23136ad2\Engine\Debug\EngineDLL.exp
^C:\Users\Lucas\Desktop\Graficos - copia\Lucas_Marcuzzi-graficos2-925d23136ad2\Engine\EngineDLL\EngineDLL.vcxproj
C:\Users\Lucas\Desktop\Graficos - copia\Lucas_Marcuzzi-graficos2-925d23136ad2\Engine\Debug\EngineDLL.lib
C:\Users\Lucas\Desktop\Graficos - copia\Lucas_Marcuzzi-graficos2-925d23136ad2\Engine\Debug\EngineDLL.exp
^C:\Users\Lucas\Desktop\Graficos - copia\Lucas_Marcuzzi-graficos2-925d23136ad2\Engine\EngineDLL\EngineDLL.vcxproj
C:\Users\Lucas\Desktop\Graficos - copia\Lucas_Marcuzzi-graficos2-925d23136ad2\Engine\Debug\EngineDLL.lib
C:\Users\Lucas\Desktop\Graficos - copia\Lucas_Marcuzzi-graficos2-925d23136ad2\Engine\Debug\EngineDLL.exp
^C:\Users\Lucas\Desktop\Graficos - copia\Lucas_Marcuzzi-graficos2-925d23136ad2\Engine\EngineDLL\EngineDLL.vcxproj
C:\Users\Lucas\Desktop\Graficos - copia\Lucas_Marcuzzi-graficos2-925d23136ad2\Engine\Debug\EngineDLL.lib
C:\Users\Lucas\Desktop\Graficos - copia\Lucas_Marcuzzi-graficos2-925d23136ad2\Engine\Debug\EngineDLL.exp
^C:\Users\Lucas\Desktop\Graficos - copia\Lucas_Marcuzzi-graficos2-925d23136ad2\Engine\EngineDLL\EngineDLL.vcxproj
C:\Users\Lucas\Desktop\Graficos - copia\Lucas_Marcuzzi-graficos2-925d23136ad2\Engine\Debug\EngineDLL.lib
C:\Users\Lucas\Desktop\Graficos - copia\Lucas_Marcuzzi-graficos2-925d23136ad2\Engine\Debug\EngineDLL.exp
^C:\Users\Lucas\Desktop\Graficos - copia\Lucas_Marcuzzi-graficos2-925d23136ad2\Engine\EngineDLL\EngineDLL.vcxproj
C:\Users\Lucas\Desktop\Graficos - copia\Lucas_Marcuzzi-graficos2-925d23136ad2\Engine\Debug\EngineDLL.lib
C:\Users\Lucas\Desktop\Graficos - copia\Lucas_Marcuzzi-graficos2-925d23136ad2\Engine\Debug\EngineDLL.exp
^C:\Users\Lucas\Desktop\Graficos - copia\Lucas_Marcuzzi-graficos2-925d23136ad2\Engine\EngineDLL\EngineDLL.vcxproj
C:\Users\Lucas\Desktop\Graficos - copia\Lucas_Marcuzzi-graficos2-925d23136ad2\Engine\Debug\EngineDLL.lib
C:\Users\Lucas\Desktop\Graficos - copia\Lucas_Marcuzzi-graficos2-925d23136ad2\Engine\Debug\EngineDLL.exp
^C:\Users\Lucas\Desktop\Graficos - copia\Lucas_Marcuzzi-graficos2-925d23136ad2\Engine\EngineDLL\EngineDLL.vcxproj
C:\Users\Lucas\Desktop\Graficos - copia\Lucas_Marcuzzi-graficos2-925d23136ad2\Engine\Debug\EngineDLL.lib
C:\Users\Lucas\Desktop\Graficos - copia\Lucas_Marcuzzi-graficos2-925d23136ad2\Engine\Debug\EngineDLL.exp
^C:\Users\Lucas\Desktop\Graficos - copia\Lucas_Marcuzzi-graficos2-925d23136ad2\Engine\EngineDLL\EngineDLL.vcxproj
C:\Users\Lucas\Desktop\Graficos - copia\Lucas_Marcuzzi-graficos2-925d23136ad2\Engine\Debug\EngineDLL.lib
C:\Users\Lucas\Desktop\Graficos - copia\Lucas_Marcuzzi-graficos2-925d23136ad2\Engine\Debug\EngineDLL.exp
^C:\Users\Lucas\Desktop\Graficos - copia\Lucas_Marcuzzi-graficos2-925d23136ad2\Engine\EngineDLL\EngineDLL.vcxproj
C:\Users\Lucas\Desktop\Graficos - copia\Lucas_Marcuzzi-graficos2-925d23136ad2\Engine\Debug\EngineDLL.lib
C:\Users\Lucas\Desktop\Graficos - copia\Lucas_Marcuzzi-graficos2-925d23136ad2\Engine\Debug\EngineDLL.exp
^C:\Users\Lucas\Desktop\Graficos - copia\Lucas_Marcuzzi-graficos2-925d23136ad2\Engine\EngineDLL\EngineDLL.vcxproj
C:\Users\Lucas\Desktop\Graficos - copia\Lucas_Marcuzzi-graficos2-925d23136ad2\Engine\Debug\EngineDLL.lib
C:\Users\Lucas\Desktop\Graficos - copia\Lucas_Marcuzzi-graficos2-925d23136ad2\Engine\Debug\EngineDLL.exp
^C:\Users\Lucas\Desktop\Graficos - copia\Lucas_Marcuzzi-graficos2-925d23136ad2\Engine\EngineDLL\EngineDLL.vcxproj
C:\Users\Lucas\Desktop\Graficos - copia\Lucas_Marcuzzi-graficos2-925d23136ad2\Engine\Debug\EngineDLL.lib
C:\Users\Lucas\Desktop\Graficos - copia\Lucas_Marcuzzi-graficos2-925d23136ad2\Engine\Debug\EngineDLL.exp
^C:\Users\Lucas\Desktop\Graficos - copia\Lucas_Marcuzzi-graficos2-925d23136ad2\Engine\EngineDLL\EngineDLL.vcxproj
C:\Users\Lucas\Desktop\Graficos - copia\Lucas_Marcuzzi-graficos2-925d23136ad2\Engine\Debug\EngineDLL.lib
C:\Users\Lucas\Desktop\Graficos - copia\Lucas_Marcuzzi-graficos2-925d23136ad2\Engine\Debug\EngineDLL.exp
^C:\Users\Lucas\Desktop\Graficos - copia\Lucas_Marcuzzi-graficos2-925d23136ad2\Engine\EngineDLL\EngineDLL.vcxproj
C:\Users\Lucas\Desktop\Graficos - copia\Lucas_Marcuzzi-graficos2-925d23136ad2\Engine\Debug\EngineDLL.lib
C:\Users\Lucas\Desktop\Graficos - copia\Lucas_Marcuzzi-graficos2-925d23136ad2\Engine\Debug\EngineDLL.exp
^C:\Users\Lucas\Desktop\Graficos - copia\Lucas_Marcuzzi-graficos2-925d23136ad2\Engine\EngineDLL\EngineDLL.vcxproj
C:\Users\Lucas\Desktop\Graficos - copia\Lucas_Marcuzzi-graficos2-925d23136ad2\Engine\Debug\EngineDLL.lib
C:\Users\Lucas\Desktop\Graficos - copia\Lucas_Marcuzzi-graficos2-925d23136ad2\Engine\Debug\EngineDLL.exp
^C:\Users\Lucas\Desktop\Graficos - copia\Lucas_Marcuzzi-graficos2-925d23136ad2\Engine\EngineDLL\EngineDLL.vcxproj
C:\Users\Lucas\Desktop\Graficos - copia\Lucas_Marcuzzi-graficos2-925d23136ad2\Engine\Debug\EngineDLL.lib
C:\Users\Lucas\Desktop\Graficos - copia\Lucas_Marcuzzi-graficos2-925d23136ad2\Engine\Debug\EngineDLL.exp
^C:\Users\Lucas\Desktop\Graficos - copia\Lucas_Marcuzzi-graficos2-925d23136ad2\Engine\EngineDLL\EngineDLL.vcxproj
C:\Users\Lucas\Desktop\Graficos - copia\Lucas_Marcuzzi-graficos2-925d23136ad2\Engine\Debug\EngineDLL.lib
C:\Users\Lucas\Desktop\Graficos - copia\Lucas_Marcuzzi-graficos2-925d23136ad2\Engine\Debug\EngineDLL.exp
^C:\Users\Lucas\Desktop\Graficos - copia\Lucas_Marcuzzi-graficos2-925d23136ad2\Engine\EngineDLL\EngineDLL.vcxproj
C:\Users\Lucas\Desktop\Graficos - copia\Lucas_Marcuzzi-graficos2-925d23136ad2\Engine\Debug\EngineDLL.lib
C:\Users\Lucas\Desktop\Graficos - copia\Lucas_Marcuzzi-graficos2-925d23136ad2\Engine\Debug\EngineDLL.exp
^C:\Users\Lucas\Desktop\Graficos - copia\Lucas_Marcuzzi-graficos2-925d23136ad2\Engine\EngineDLL\EngineDLL.vcxproj
C:\Users\Lucas\Desktop\Graficos - copia\Lucas_Marcuzzi-graficos2-925d23136ad2\Engine\Debug\EngineDLL.lib
C:\Users\Lucas\Desktop\Graficos - copia\Lucas_Marcuzzi-graficos2-925d23136ad2\Engine\Debug\EngineDLL.exp
^C:\Users\Lucas\Desktop\Graficos - copia\Lucas_Marcuzzi-graficos2-925d23136ad2\Engine\EngineDLL\EngineDLL.vcxproj
C:\Users\Lucas\Desktop\Graficos - copia\Lucas_Marcuzzi-graficos2-925d23136ad2\Engine\Debug\EngineDLL.lib
C:\Users\Lucas\Desktop\Graficos - copia\Lucas_Marcuzzi-graficos2-925d23136ad2\Engine\Debug\EngineDLL.exp
^C:\Users\Lucas\Desktop\Graficos - copia\Lucas_Marcuzzi-graficos2-925d23136ad2\Engine\EngineDLL\EngineDLL.vcxproj
C:\Users\Lucas\Desktop\Graficos - copia\Lucas_Marcuzzi-graficos2-925d23136ad2\Engine\Debug\EngineDLL.lib
C:\Users\Lucas\Desktop\Graficos - copia\Lucas_Marcuzzi-graficos2-925d23136ad2\Engine\Debug\EngineDLL.exp
^C:\Users\Lucas\Desktop\Graficos - copia\Lucas_Marcuzzi-graficos2-925d23136ad2\Engine\EngineDLL\EngineDLL.vcxproj
C:\Users\Lucas\Desktop\Graficos - copia\Lucas_Marcuzzi-graficos2-925d23136ad2\Engine\Debug\EngineDLL.lib
C:\Users\Lucas\Desktop\Graficos - copia\Lucas_Marcuzzi-graficos2-925d23136ad2\Engine\Debug\EngineDLL.exp
^C:\Users\Lucas\Desktop\Graficos - copia\Lucas_Marcuzzi-graficos2-925d23136ad2\Engine\EngineDLL\EngineDLL.vcxproj
C:\Users\Lucas\Desktop\Graficos - copia\Lucas_Marcuzzi-graficos2-925d23136ad2\Engine\Debug\EngineDLL.lib
C:\Users\Lucas\Desktop\Graficos - copia\Lucas_Marcuzzi-graficos2-925d23136ad2\Engine\Debug\EngineDLL.exp
^C:\Users\Lucas\Desktop\Graficos - copia\Lucas_Marcuzzi-graficos2-925d23136ad2\Engine\EngineDLL\EngineDLL.vcxproj
C:\Users\Lucas\Desktop\Graficos - copia\Lucas_Marcuzzi-graficos2-925d23136ad2\Engine\Debug\EngineDLL.lib
C:\Users\Lucas\Desktop\Graficos - copia\Lucas_Marcuzzi-graficos2-925d23136ad2\Engine\Debug\EngineDLL.exp
^C:\Users\Lucas\Desktop\Graficos - copia\Lucas_Marcuzzi-graficos2-925d23136ad2\Engine\EngineDLL\EngineDLL.vcxproj
C:\Users\Lucas\Desktop\Graficos - copia\Lucas_Marcuzzi-graficos2-925d23136ad2\Engine\Debug\EngineDLL.lib
C:\Users\Lucas\Desktop\Graficos - copia\Lucas_Marcuzzi-graficos2-925d23136ad2\Engine\Debug\EngineDLL.exp
^C:\Users\Lucas\Desktop\Graficos - copia\Lucas_Marcuzzi-graficos2-925d23136ad2\Engine\EngineDLL\EngineDLL.vcxproj
C:\Users\Lucas\Desktop\Graficos - copia\Lucas_Marcuzzi-graficos2-925d23136ad2\Engine\Debug\EngineDLL.lib
C:\Users\Lucas\Desktop\Graficos - copia\Lucas_Marcuzzi-graficos2-925d23136ad2\Engine\Debug\EngineDLL.exp
^C:\Users\Lucas\Desktop\Graficos - copia\Lucas_Marcuzzi-graficos2-925d23136ad2\Engine\EngineDLL\EngineDLL.vcxproj
C:\Users\Lucas\Desktop\Graficos - copia\Lucas_Marcuzzi-graficos2-925d23136ad2\Engine\Debug\EngineDLL.lib
C:\Users\Lucas\Desktop\Graficos - copia\Lucas_Marcuzzi-graficos2-925d23136ad2\Engine\Debug\EngineDLL.exp
^C:\Users\Lucas\Desktop\Graficos - copia\Lucas_Marcuzzi-graficos2-925d23136ad2\Engine\EngineDLL\EngineDLL.vcxproj
C:\Users\Lucas\Desktop\Graficos - copia\Lucas_Marcuzzi-graficos2-925d23136ad2\Engine\Debug\EngineDLL.lib
C:\Users\Lucas\Desktop\Graficos - copia\Lucas_Marcuzzi-graficos2-925d23136ad2\Engine\Debug\EngineDLL.exp
^C:\Users\Lucas\Desktop\Graficos - copia - copia\Lucas_Marcuzzi-graficos2-925d23136ad2\Engine\EngineDLL\EngineDLL.vcxproj
C:\Users\Lucas\Desktop\Graficos - copia - copia\Lucas_Marcuzzi-graficos2-925d23136ad2\Engine\Debug\EngineDLL.lib
C:\Users\Lucas\Desktop\Graficos - copia - copia\Lucas_Marcuzzi-graficos2-925d23136ad2\Engine\Debug\EngineDLL.exp
^C:\Users\Lucas\Desktop\Graficos - copia - copia\Lucas_Marcuzzi-graficos2-925d23136ad2\Engine\EngineDLL\EngineDLL.vcxproj
C:\Users\Lucas\Desktop\Graficos - copia - copia\Lucas_Marcuzzi-graficos2-925d23136ad2\Engine\Debug\EngineDLL.lib
C:\Users\Lucas\Desktop\Graficos - copia - copia\Lucas_Marcuzzi-graficos2-925d23136ad2\Engine\Debug\EngineDLL.exp
^C:\Users\Lucas\Desktop\Graficos - copia - copia\Lucas_Marcuzzi-graficos2-925d23136ad2\Engine\EngineDLL\EngineDLL.vcxproj
C:\Users\Lucas\Desktop\Graficos - copia - copia\Lucas_Marcuzzi-graficos2-925d23136ad2\Engine\Debug\EngineDLL.lib
C:\Users\Lucas\Desktop\Graficos - copia - copia\Lucas_Marcuzzi-graficos2-925d23136ad2\Engine\Debug\EngineDLL.exp
^C:\Users\Lucas\Desktop\Graficos - copia - copia\Lucas_Marcuzzi-graficos2-925d23136ad2\Engine\EngineDLL\EngineDLL.vcxproj
C:\Users\Lucas\Desktop\Graficos - copia - copia\Lucas_Marcuzzi-graficos2-925d23136ad2\Engine\Debug\EngineDLL.lib
C:\Users\Lucas\Desktop\Graficos - copia - copia\Lucas_Marcuzzi-graficos2-925d23136ad2\Engine\Debug\EngineDLL.exp
^C:\Users\Lucas\Desktop\Graficos - copia - copia\Lucas_Marcuzzi-graficos2-925d23136ad2\Engine\EngineDLL\EngineDLL.vcxproj
C:\Users\Lucas\Desktop\Graficos - copia - copia\Lucas_Marcuzzi-graficos2-925d23136ad2\Engine\Debug\EngineDLL.lib
C:\Users\Lucas\Desktop\Graficos - copia - copia\Lucas_Marcuzzi-graficos2-925d23136ad2\Engine\Debug\EngineDLL.exp
^C:\Users\Lucas\Desktop\Graficos - copia - copia\Lucas_Marcuzzi-graficos2-925d23136ad2\Engine\EngineDLL\EngineDLL.vcxproj
C:\Users\Lucas\Desktop\Graficos - copia - copia\Lucas_Marcuzzi-graficos2-925d23136ad2\Engine\Debug\EngineDLL.lib
C:\Users\Lucas\Desktop\Graficos - copia - copia\Lucas_Marcuzzi-graficos2-925d23136ad2\Engine\Debug\EngineDLL.exp
^C:\Users\Lucas\Desktop\Graficos - copia - copia\Lucas_Marcuzzi-graficos2-925d23136ad2\Engine\EngineDLL\EngineDLL.vcxproj
C:\Users\Lucas\Desktop\Graficos - copia - copia\Lucas_Marcuzzi-graficos2-925d23136ad2\Engine\Debug\EngineDLL.lib
C:\Users\Lucas\Desktop\Graficos - copia - copia\Lucas_Marcuzzi-graficos2-925d23136ad2\Engine\Debug\EngineDLL.exp
^C:\Users\Lucas\Desktop\Graficos - copia - copia\Lucas_Marcuzzi-graficos2-925d23136ad2\Engine\EngineDLL\EngineDLL.vcxproj
C:\Users\Lucas\Desktop\Graficos - copia - copia\Lucas_Marcuzzi-graficos2-925d23136ad2\Engine\Debug\EngineDLL.lib
C:\Users\Lucas\Desktop\Graficos - copia - copia\Lucas_Marcuzzi-graficos2-925d23136ad2\Engine\Debug\EngineDLL.exp
^C:\Users\Lucas\Desktop\Graficos - copia - copia\Lucas_Marcuzzi-graficos2-925d23136ad2\Engine\EngineDLL\EngineDLL.vcxproj
C:\Users\Lucas\Desktop\Graficos - copia - copia\Lucas_Marcuzzi-graficos2-925d23136ad2\Engine\Debug\EngineDLL.lib
C:\Users\Lucas\Desktop\Graficos - copia - copia\Lucas_Marcuzzi-graficos2-925d23136ad2\Engine\Debug\EngineDLL.exp
^C:\Users\Lucas\Desktop\Graficos - copia - copia\Lucas_Marcuzzi-graficos2-925d23136ad2\Engine\EngineDLL\EngineDLL.vcxproj
C:\Users\Lucas\Desktop\Graficos - copia - copia\Lucas_Marcuzzi-graficos2-925d23136ad2\Engine\Debug\EngineDLL.lib
C:\Users\Lucas\Desktop\Graficos - copia - copia\Lucas_Marcuzzi-graficos2-925d23136ad2\Engine\Debug\EngineDLL.exp
^C:\Users\Lucas\Desktop\Graficos - copia - copia\Lucas_Marcuzzi-graficos2-925d23136ad2\Engine\EngineDLL\EngineDLL.vcxproj
C:\Users\Lucas\Desktop\Graficos - copia - copia\Lucas_Marcuzzi-graficos2-925d23136ad2\Engine\Debug\EngineDLL.lib
C:\Users\Lucas\Desktop\Graficos - copia - copia\Lucas_Marcuzzi-graficos2-925d23136ad2\Engine\Debug\EngineDLL.exp
^C:\Users\Lucas\Desktop\Graficos - copia - copia\Lucas_Marcuzzi-graficos2-925d23136ad2\Engine\EngineDLL\EngineDLL.vcxproj
C:\Users\Lucas\Desktop\Graficos - copia - copia\Lucas_Marcuzzi-graficos2-925d23136ad2\Engine\Debug\EngineDLL.lib
C:\Users\Lucas\Desktop\Graficos - copia - copia\Lucas_Marcuzzi-graficos2-925d23136ad2\Engine\Debug\EngineDLL.exp
^C:\Users\Lucas\Desktop\Graficos - copia - copia\Lucas_Marcuzzi-graficos2-925d23136ad2\Engine\EngineDLL\EngineDLL.vcxproj
C:\Users\Lucas\Desktop\Graficos - copia - copia\Lucas_Marcuzzi-graficos2-925d23136ad2\Engine\Debug\EngineDLL.lib
C:\Users\Lucas\Desktop\Graficos - copia - copia\Lucas_Marcuzzi-graficos2-925d23136ad2\Engine\Debug\EngineDLL.exp
^C:\Users\Lucas\Desktop\Graficos - copia - copia\Lucas_Marcuzzi-graficos2-925d23136ad2\Engine\EngineDLL\EngineDLL.vcxproj
C:\Users\Lucas\Desktop\Graficos - copia - copia\Lucas_Marcuzzi-graficos2-925d23136ad2\Engine\Debug\EngineDLL.lib
C:\Users\Lucas\Desktop\Graficos - copia - copia\Lucas_Marcuzzi-graficos2-925d23136ad2\Engine\Debug\EngineDLL.exp
^C:\Users\Lucas\Desktop\Graficos - copia - copia\Lucas_Marcuzzi-graficos2-925d23136ad2\Engine\EngineDLL\EngineDLL.vcxproj
C:\Users\Lucas\Desktop\Graficos - copia - copia\Lucas_Marcuzzi-graficos2-925d23136ad2\Engine\Debug\EngineDLL.lib
C:\Users\Lucas\Desktop\Graficos - copia - copia\Lucas_Marcuzzi-graficos2-925d23136ad2\Engine\Debug\EngineDLL.exp
^C:\Users\Lucas\Desktop\Graficos - copia - copia\Lucas_Marcuzzi-graficos2-925d23136ad2\Engine\EngineDLL\EngineDLL.vcxproj
C:\Users\Lucas\Desktop\Graficos - copia - copia\Lucas_Marcuzzi-graficos2-925d23136ad2\Engine\Debug\EngineDLL.lib
C:\Users\Lucas\Desktop\Graficos - copia - copia\Lucas_Marcuzzi-graficos2-925d23136ad2\Engine\Debug\EngineDLL.exp
^C:\Users\Lucas\Desktop\Graficos - copia - copia\Lucas_Marcuzzi-graficos2-925d23136ad2\Engine\EngineDLL\EngineDLL.vcxproj
C:\Users\Lucas\Desktop\Graficos - copia - copia\Lucas_Marcuzzi-graficos2-925d23136ad2\Engine\Debug\EngineDLL.lib
C:\Users\Lucas\Desktop\Graficos - copia - copia\Lucas_Marcuzzi-graficos2-925d23136ad2\Engine\Debug\EngineDLL.exp
^C:\Users\Lucas\Desktop\Graficos - copia - copia\Lucas_Marcuzzi-graficos2-925d23136ad2\Engine\EngineDLL\EngineDLL.vcxproj
C:\Users\Lucas\Desktop\Graficos - copia - copia\Lucas_Marcuzzi-graficos2-925d23136ad2\Engine\Debug\EngineDLL.lib
C:\Users\Lucas\Desktop\Graficos - copia - copia\Lucas_Marcuzzi-graficos2-925d23136ad2\Engine\Debug\EngineDLL.exp
^C:\Users\Lucas\Desktop\Graficos - copia - copia\Lucas_Marcuzzi-graficos2-925d23136ad2\Engine\EngineDLL\EngineDLL.vcxproj
C:\Users\Lucas\Desktop\Graficos - copia - copia\Lucas_Marcuzzi-graficos2-925d23136ad2\Engine\Debug\EngineDLL.lib
C:\Users\Lucas\Desktop\Graficos - copia - copia\Lucas_Marcuzzi-graficos2-925d23136ad2\Engine\Debug\EngineDLL.exp
^C:\Users\Lucas\Desktop\Graficos - copia - copia\Lucas_Marcuzzi-graficos2-925d23136ad2\Engine\EngineDLL\EngineDLL.vcxproj
C:\Users\Lucas\Desktop\Graficos - copia - copia\Lucas_Marcuzzi-graficos2-925d23136ad2\Engine\Debug\EngineDLL.lib
C:\Users\Lucas\Desktop\Graficos - copia - copia\Lucas_Marcuzzi-graficos2-925d23136ad2\Engine\Debug\EngineDLL.exp
^C:\Users\Lucas\Desktop\Graficos - copia - copia\Lucas_Marcuzzi-graficos2-925d23136ad2\Engine\EngineDLL\EngineDLL.vcxproj
C:\Users\Lucas\Desktop\Graficos - copia - copia\Lucas_Marcuzzi-graficos2-925d23136ad2\Engine\Debug\EngineDLL.lib
C:\Users\Lucas\Desktop\Graficos - copia - copia\Lucas_Marcuzzi-graficos2-925d23136ad2\Engine\Debug\EngineDLL.exp
^C:\Users\Lucas\Desktop\Graficos - copia - copia\Lucas_Marcuzzi-graficos2-925d23136ad2\Engine\EngineDLL\EngineDLL.vcxproj
C:\Users\Lucas\Desktop\Graficos - copia - copia\Lucas_Marcuzzi-graficos2-925d23136ad2\Engine\Debug\EngineDLL.lib
C:\Users\Lucas\Desktop\Graficos - copia - copia\Lucas_Marcuzzi-graficos2-925d23136ad2\Engine\Debug\EngineDLL.exp
^C:\Users\Lucas\Desktop\Graficos - copia - copia\Lucas_Marcuzzi-graficos2-925d23136ad2\Engine\EngineDLL\EngineDLL.vcxproj
C:\Users\Lucas\Desktop\Graficos - copia - copia\Lucas_Marcuzzi-graficos2-925d23136ad2\Engine\Debug\EngineDLL.lib
C:\Users\Lucas\Desktop\Graficos - copia - copia\Lucas_Marcuzzi-graficos2-925d23136ad2\Engine\Debug\EngineDLL.exp
